{
  "project_info": {
    "project_number": "46337562641",
    "firebase_url": "https://msufood-e9b58.firebaseio.com",
    "project_id": "msufood-e9b58",
    "storage_bucket": "msufood-e9b58.appspot.com"
  },
  "client": [
    {
      "client_info": {
        "mobilesdk_app_id": "1:46337562641:android:270f7719a1050cdb",
        "android_client_info": {
          "package_name": "com.example.snackz.project"
        }
      },
      "oauth_client": [
        {
          "client_id": "46337562641-0ul8mvqoo8ojoiq5lb8autbpcnag7npo.apps.googleusercontent.com",
          "client_type": 3
        }
      ],
      "api_key": [
        {
          "current_key": "AIzaSyDhjfGjjg5Tq-6GlkYShFnYFSDWhaHYbp8"
        }
      ],
      "services": {
        "analytics_service": {
          "status": 1
        },
        "appinvite_service": {
          "status": 1,
          "other_platform_oauth_client": []
        },
        "ads_service": {
          "status": 2
        }
      }
    }
  ],
  "configuration_version": "1"
}